4 Ribotrans object – RiboTransVis
…
Slot "mapping_type":
[1] "genome"

Slot "assignment_mode":
[1] "end5"

Slot "features":
# A tibble: 7,127 × 10
# Groups:   gene [7,127]
   transcript_id  idnew                          utr5   cds  utr3 exonlen translen mstart mstop gene          
   <chr>          <chr>                         <dbl> <dbl> <dbl>   <dbl>    <dbl>  <dbl> <dbl> <chr>         
 1 tY(GUA)Q_tRNA  tY(GUA)Q_tRNA|tY(GUA)Q_tRNA      50     0    50     184      184      0     0 tY(GUA)Q_tRNA 
 2 tX(XXX)L_tRNA  tX(XXX)L_tRNA|tX(XXX)L_tRNA      50     0    50     180      180      0     0 tX(XXX)L_tRNA 
 3 tX(XXX)D_tRNA  tX(XXX)D_tRNA|tX(XXX)D_tRNA      50     0    50     200      200      0     0 tX(XXX)D_tRNA 
 4 tW(UCA)Q_tRNA  tW(UCA)Q_tRNA|tW(UCA)Q_tRNA      50     0    50     174      174      0     0 tW(UCA)Q_tRNA 
 5 tW(CCA)P_tRNA  tW(CCA)P_tRNA|tW(CCA)P_tRNA      50     0    50     172      172      0     0 tW(CCA)P_tRNA 
 6 tW(CCA)M_tRNA  tW(CCA)M_tRNA|tW(CCA)M_tRNA      50     0    50     172      172      0     0 tW(CCA)M_tRNA 
 7 tW(CCA)K_tRNA  tW(CCA)K_tRNA|tW(CCA)K_tRNA      50     0    50     172      172      0     0 tW(CCA)K_tRNA 
 8 tW(CCA)J_tRNA  tW(CCA)J_tRNA|tW(CCA)J_tRNA      50     0    50     172      172      0     0 tW(CCA)J_tRNA 
 9 tW(CCA)G2_tRNA tW(CCA)G2_tRNA|tW(CCA)G2_tRNA    50     0    50     172      172      0     0 tW(CCA)G2_tRNA
10 tW(CCA)G1_tRNA tW(CCA)G1_tRNA|tW(CCA)G1_tRNA    50     0    50     172      172      0     0 tW(CCA)G1_tRNA
# ℹ 7,117 more rows
# ℹ Use `print(n = ...)` to see more rows

Slot "genome_trans_features":
# A tibble: 7,507 × 9
# Groups:   gene_name, transcript_id [7,127]
   seqnames  start    end width tx_len strand gene_name transcript_id f_len
   <fct>     <dbl>  <dbl> <dbl>  <dbl> <fct>  <chr>     <chr>         <dbl>
 1 Mito       6496   8244  1749   1749 +      15S_RRNA  Q0020_rRNA     1749
 2 Mito      57959  60724  2766   2766 +      21S_RRNA  Q0158_rRNA     3396
 3 Mito      61868  62497   630   3396 +      21S_RRNA  Q0158_rRNA     3396
 4 II       415933 416956  1024   1024 +      AAC3      YBR085W_mRNA   1024
 5 X        727355 728321   967    967 +      AAD10     YJR155W_mRNA    967
 6 III      313840 315031  1192   1192 +      AAD3      YCR107W_mRNA   1192
 7 XIV      359546 360689  1144   1144 +      AAH1      YNL141W_mRNA   1144
 8 XI       237486 238941  1456   1456 +      AAT1      YKL106W_mRNA   1456
 9 XI       226520 228815  2296   2296 +      ABF1      YKL112W_mRNA   2296
10 XIII     411519 412170   652    652 +      ABF2      YMR072W_mRNA    652
# ℹ 7,497 more rows
# ℹ Use `print(n = ...)` to see more rows
…
